
---------Correspondence---------
http://Frankfurt#sid-445A78A6-1CA7-40BF-B7BF-B8CCCAAEF703 : Rejected
http://Potsdam#sid-2A9C0ECA-8F9F-4329-9023-8A4B3332F463 : Receive rejection

---------Correspondence---------
http://Frankfurt#sid-56CF457C-E58D-4519-AD80-5EDE6DD9E302 : Accepted
http://Potsdam#sid-162937B1-3998-44B9-BB0A-840A43001E88 : Receive acceptance
