
---------Correspondence---------
http://Hohenheim#sid-2F047787-FB05-403C-8F37-ED7C914BEBF8 : Receiving the written applications
http://TU_Munich#sid-DFAB4855-32CC-4502-805E-32558E512ADD : null

---------Correspondence---------
http://Hohenheim#sid-DB4C0A6E-9FFA-4DA6-9DBA-94407BADD758 : Assessment of application
http://TU_Munich#sid-8C188CB2-5CD5-451F-B76D-B14C777E9556 : Evaluate

---------Correspondence---------
http://Hohenheim#sid-127FF88D-82B1-497C-810F-A233C9815279 : Send all the requirements to the secretarial office for students
http://TU_Munich#sid-B9C01B9A-294C-4E27-A0A8-DB69025E4284 : Send documents by post

---------Correspondence---------
http://Hohenheim#sid-EA76CC8B-DB97-46CB-A2A0-5F44667C8B2E : Waiting for the response
http://TU_Munich#sid-40FCF57B-44A4-443F-80D6-D2778D1045CD : Wait for results

---------Correspondence---------
http://Hohenheim#sid-0018F174-AA16-4850-98AB-1FB3C0AE4DA8 : Rejection
http://TU_Munich#sid-701A0B1D-BFF0-482A-A658-A6713BC21F13 : Rejected

---------Correspondence---------
http://Hohenheim#sid-0018F174-AA16-4850-98AB-1FB3C0AE4DA8 : Rejection
http://TU_Munich#sid-BB1C4222-40C6-4013-A9C7-11BD25E18C16 : Rejected
