
---------Correspondence---------
http://IIS_Erlangen#sid-121FB47D-8E7F-4575-8475-845CE385DEBE : Add certificates of qualification
http://Potsdam#sid-FB567539-2B9F-4B9C-A2A8-4C8A9097CE89 : Add certificates of qualification

---------Correspondence---------
http://IIS_Erlangen#sid-7FE86054-7714-47D1-B91A-7215AC3688B0 : Sum scores
http://Potsdam#sid-B969BD21-9ED6-4153-9A4A-16D3FF6EB8E6 : Sum scores

---------Correspondence---------
http://IIS_Erlangen#sid-57341183-918C-47F1-866B-736494086EBB : Send acceptance
http://Potsdam#sid-17FDBB39-FBFF-46F5-A2AE-DAEC97FF32AD : Send acceptance

---------Correspondence---------
http://IIS_Erlangen#sid-6DFE0930-0501-4B8A-A303-C56864B1E852 : Score bachelors grade
http://Potsdam#sid-2134BCB7-AA6C-4D36-98BD-96A11AA724F7 : Score bachelors grade by §7(1)(a) * 51

---------Correspondence---------
http://IIS_Erlangen#sid-AD174F93-7C65-4F21-8791-2C91779F9457 : Check application in time
http://Potsdam#sid-5D9439A1-1455-4570-A9BE-34EFA757CA6A : Check application in time

---------Correspondence---------
http://IIS_Erlangen#sid-CD0AAA0A-DA33-49A7-9210-91A50CE637A4 : Send rejection
http://Potsdam#sid-D6F6FE73-9224-4FA6-9826-C13A0C20FA8D : Send rejection

---------Correspondence---------
http://IIS_Erlangen#sid-9966DEA0-43B5-40A7-926C-5EA6653A5516 : Hand application over to examining board
http://Potsdam#sid-16CD6E68-2B7E-4A56-B195-076C7072930A : Hand application over to examining board

---------Correspondence---------
http://IIS_Erlangen#sid-78628E68-D703-4407-AD30-7895057B7981 : Attach additional requirements
http://Potsdam#sid-913A36A0-2F12-42FE-B791-904D6E57BF46 : Add additional requirements

---------Correspondence---------
http://IIS_Erlangen#sid-C849D28D-C573-445E-B502-9555E993FFE6 : Reject application
http://Potsdam#sid-D257B8C8-40C7-45B7-81BC-074AA5772C45 : Reject application

---------Correspondence---------
http://IIS_Erlangen#sid-CB26DB0C-6BB2-4959-BA80-63FE44D0FFEC : Add certificate of bachelor degree
http://Potsdam#sid-4636DE79-328E-4C1B-8BE3-F0D5FF00E69C : Add certificate of bachelor degree

---------Correspondence---------
http://IIS_Erlangen#sid-52FC6F9A-BE98-410C-AB76-1D1C4D44EFAF : Check application complete
http://Potsdam#sid-D762B700-0BF5-4E53-95E1-C1150CFB8FB9 : Check application complete

---------Correspondence---------
http://IIS_Erlangen#sid-5655D4E3-47A7-4059-9E04-F9BFCFE28EAF : Complete application
http://Potsdam#sid-7A2F2AA8-E50F-40F2-B7ED-CDEDB810D97C : Complete application

---------Correspondence---------
http://IIS_Erlangen#sid-E326A826-24F7-4033-96F3-C5842831A3D7 : Compare and send application
http://Potsdam#sid-1181CC8B-F6CE-4E13-A25C-93BDF75B71B7 : Send application

---------Correspondence---------
http://IIS_Erlangen#sid-405700D2-A6F9-4EC4-904F-D0611611EAF5 : Create and add CV
http://Potsdam#sid-D3AE1325-5912-4B94-9B35-72D7EBE6BE16 : Create and add CV

---------Correspondence---------
http://IIS_Erlangen#sid-A212088C-053D-4D7B-B952-B396934B4817 : Receive application
http://Potsdam#sid-000A0B1A-81B1-47A9-AA69-7A50FC11468A : Receive application

---------Correspondence---------
http://IIS_Erlangen#sid-A5F778C1-162A-4616-BF72-B27C8D984B7C : Accept application
http://Potsdam#sid-7E31973F-0987-4E8B-B586-05886C31EBD7 : Accept application

---------Correspondence---------
http://IIS_Erlangen#sid-9E6AC1EE-583E-4DF0-86A9-2756FA0FE7E2 : Add certificate of German language
http://Potsdam#sid-D7986EB7-2220-4C30-A486-42454F049BCB : Add certificate of German language

---------Correspondence---------
http://IIS_Erlangen#sid-ECB2E4CE-141A-4D17-A9AF-35EC03B08FB9 : Immatriculate
http://Potsdam#sid-8331F5EE-D58A-48EC-BC26-C10543262F66 : Immatriculate

---------Correspondence---------
http://IIS_Erlangen#sid-2494BD3D-C2F2-4D7B-AF79-05A20B0F8365 : Fill out application form
http://Potsdam#sid-F0B6060E-1460-4CFF-8D94-1181081F4671 : Fill out application form

---------Correspondence---------
http://IIS_Erlangen#sid-E1B48426-0D24-401B-8294-62FB8A9118DF : Receive acceptance
http://Potsdam#sid-162937B1-3998-44B9-BB0A-840A43001E88 : Receive acceptance

---------Correspondence---------
http://IIS_Erlangen#sid-C2CD7A77-DD54-4B76-9226-22C848009BB6 : Receive rejection
http://Potsdam#sid-2A9C0ECA-8F9F-4329-9023-8A4B3332F463 : Receive rejection
