
---------Correspondence---------
http://Cologne#sid-8712EF38-01F5-4812-ACB7-8F0EF759F38C : Rejected
http://IIS_Erlangen#sid-C2CD7A77-DD54-4B76-9226-22C848009BB6 : Receive rejection

---------Correspondence---------
http://Cologne#sid-FF649B0C-30F0-4E43-9BEC-02E1B22AA554 : Accepted
http://IIS_Erlangen#sid-E1B48426-0D24-401B-8294-62FB8A9118DF : Receive acceptance
