
---------Correspondence---------
http://FU_Berlin#sid-8CD99AE0-12FB-4062-AEDC-AA4457745B90 : Send application
http://Muenster#sid-4811BF85-FF42-4251-8F8A-7C9A07E6EC55 : Send application form and documents

---------Correspondence---------
http://FU_Berlin#sid-8FEB2C82-D8BE-4C3B-892E-2259C76329B3 : Check application complete
http://Muenster#sid-5DD3A49E-7B3D-47D1-AFA8-0B84AF735F72 : Check application complete

---------Correspondence---------
http://FU_Berlin#sid-C7F816A3-51CD-4003-959F-D7334F288544 : Send rejection
http://Muenster#sid-13F8AF16-C3E3-42BC-95BB-98450FD7603D : Send rejection

---------Correspondence---------
http://FU_Berlin#sid-B7F2DD16-6741-4CB0-BFF4-42A20B9731FC : Receive acceptance
http://Muenster#sid-182346E3-C3CF-4CF6-B8E6-4D3D4BDA3D1B : Receive acceptance

---------Correspondence---------
http://FU_Berlin#sid-DBE82358-A50E-45CA-AB6B-F0EF44F8B668 : Immatriculate
http://Muenster#sid-0A8BD8F6-562C-4872-8FE8-5244B2F536E7 : Enrollment

---------Correspondence---------
http://FU_Berlin#sid-9C365BD2-58D0-443D-9FD4-AC287BF377F6 : Take
interview
http://Muenster#sid-653B2E61-D08D-4038-A632-603B74BAAD45 : Take interview

---------Correspondence---------
http://FU_Berlin#sid-4C4F7701-49EF-41A8-946A-88EF52B17794 : Talk to applicant
http://Muenster#sid-5D36CFBD-36D5-4A2F-81E6-83F468923C4B : Do the interview

---------Correspondence---------
http://FU_Berlin#sid-3F0D094B-1A34-41E6-A506-54B5EA5939BC : Hand application over to examining board
http://Muenster#sid-04580F97-3E04-4CFC-9904-FF4A851B560C : Send application to selection committee

---------Correspondence---------
http://FU_Berlin#sid-110728C7-A18D-4D6E-9468-19E1A2524ED5 : Send acceptance
http://Muenster#sid-5DBF77E5-6F45-462A-9589-8B8A202D5C1A : Send acceptance

---------Correspondence---------
http://FU_Berlin#sid-40E8C5AF-D744-4471-A64D-96313973FB7E : Receive rejection
http://Muenster#sid-A91510C7-052B-42D7-AE79-5117D98E57B7 : Receive rejection
